w_TRIGGmu_sigCat1_BsSignal_bin1 vs w_TRIGGmu_sigCat1_BsSignal_bin1 --> eff1 = 0.603301   eff2 = 0.603301    cov_pass = 229291   cov_fail = 127823
w_TRIGGmu_sigCat1_BsSignal_bin1 vs w_TRIGGmu_sigCat1_BsSignal_bin2 --> eff1 = 0.603301   eff2 = 0.598141    cov_pass = 192121   cov_fail = 111588
w_TRIGGmu_sigCat1_BsSignal_bin1 vs w_TRIGGmu_sigCat1_BsSignal_bin3 --> eff1 = 0.603301   eff2 = 0.582566    cov_pass = 187238   cov_fail = 116056
w_TRIGGmu_sigCat1_BsSignal_bin1 vs w_TRIGGmu_sigCat1_BsSignal_bin4 --> eff1 = 0.603301   eff2 = 0.569867    cov_pass = 172356   cov_fail = 117198
w_TRIGGmu_sigCat1_BsSignal_bin1 vs w_TRIGGmu_sigCat1_BsSignal_bin5 --> eff1 = 0.603301   eff2 = 0.557973    cov_pass = 161637   cov_fail = 115023
w_TRIGGmu_sigCat1_BsSignal_bin1 vs w_TRIGGmu_sigCat1_BsSignal_bin6 --> eff1 = 0.603301   eff2 = 0.524286    cov_pass = 147263   cov_fail = 123916
w_TRIGGmu_sigCat1_BsSignal_bin1 vs w_TRIGGmu_sigCat1_BsSignal_tot --> eff1 = 0.603301   eff2 = 0.563027    cov_pass = 169851   cov_fail = 117797
w_TRIGGmu_sigCat1_BsSignal_bin2 vs w_TRIGGmu_sigCat1_BsSignal_bin2 --> eff1 = 0.598141   eff2 = 0.598141    cov_pass = 196784   cov_fail = 117070
w_TRIGGmu_sigCat1_BsSignal_bin2 vs w_TRIGGmu_sigCat1_BsSignal_bin3 --> eff1 = 0.598141   eff2 = 0.582566    cov_pass = 180876   cov_fail = 114364
w_TRIGGmu_sigCat1_BsSignal_bin2 vs w_TRIGGmu_sigCat1_BsSignal_bin4 --> eff1 = 0.598141   eff2 = 0.569867    cov_pass = 171673   cov_fail = 117060
w_TRIGGmu_sigCat1_BsSignal_bin2 vs w_TRIGGmu_sigCat1_BsSignal_bin5 --> eff1 = 0.598141   eff2 = 0.557973    cov_pass = 164879   cov_fail = 119257
w_TRIGGmu_sigCat1_BsSignal_bin2 vs w_TRIGGmu_sigCat1_BsSignal_bin6 --> eff1 = 0.598141   eff2 = 0.524286    cov_pass = 151733   cov_fail = 128252
w_TRIGGmu_sigCat1_BsSignal_bin2 vs w_TRIGGmu_sigCat1_BsSignal_tot --> eff1 = 0.598141   eff2 = 0.563027    cov_pass = 169503   cov_fail = 119153
w_TRIGGmu_sigCat1_BsSignal_bin3 vs w_TRIGGmu_sigCat1_BsSignal_bin3 --> eff1 = 0.582566   eff2 = 0.582566    cov_pass = 182792   cov_fail = 124343
w_TRIGGmu_sigCat1_BsSignal_bin3 vs w_TRIGGmu_sigCat1_BsSignal_bin4 --> eff1 = 0.582566   eff2 = 0.569867    cov_pass = 167040   cov_fail = 122768
w_TRIGGmu_sigCat1_BsSignal_bin3 vs w_TRIGGmu_sigCat1_BsSignal_bin5 --> eff1 = 0.582566   eff2 = 0.557973    cov_pass = 159932   cov_fail = 122927
w_TRIGGmu_sigCat1_BsSignal_bin3 vs w_TRIGGmu_sigCat1_BsSignal_bin6 --> eff1 = 0.582566   eff2 = 0.524286    cov_pass = 145568   cov_fail = 131433
w_TRIGGmu_sigCat1_BsSignal_bin3 vs w_TRIGGmu_sigCat1_BsSignal_tot --> eff1 = 0.582566   eff2 = 0.563027    cov_pass = 164436   cov_fail = 123744
w_TRIGGmu_sigCat1_BsSignal_bin4 vs w_TRIGGmu_sigCat1_BsSignal_bin4 --> eff1 = 0.569867   eff2 = 0.569867    cov_pass = 168092   cov_fail = 130007
w_TRIGGmu_sigCat1_BsSignal_bin4 vs w_TRIGGmu_sigCat1_BsSignal_bin5 --> eff1 = 0.569867   eff2 = 0.557973    cov_pass = 159565   cov_fail = 128560
w_TRIGGmu_sigCat1_BsSignal_bin4 vs w_TRIGGmu_sigCat1_BsSignal_bin6 --> eff1 = 0.569867   eff2 = 0.524286    cov_pass = 146843   cov_fail = 137845
w_TRIGGmu_sigCat1_BsSignal_bin4 vs w_TRIGGmu_sigCat1_BsSignal_tot --> eff1 = 0.569867   eff2 = 0.563027    cov_pass = 161134   cov_fail = 128247
w_TRIGGmu_sigCat1_BsSignal_bin5 vs w_TRIGGmu_sigCat1_BsSignal_bin5 --> eff1 = 0.557973   eff2 = 0.557973    cov_pass = 161028   cov_fail = 136768
w_TRIGGmu_sigCat1_BsSignal_bin5 vs w_TRIGGmu_sigCat1_BsSignal_bin6 --> eff1 = 0.557973   eff2 = 0.524286    cov_pass = 148001   cov_fail = 143783
w_TRIGGmu_sigCat1_BsSignal_bin5 vs w_TRIGGmu_sigCat1_BsSignal_tot --> eff1 = 0.557973   eff2 = 0.563027    cov_pass = 157279   cov_fail = 131109
w_TRIGGmu_sigCat1_BsSignal_bin6 vs w_TRIGGmu_sigCat1_BsSignal_bin6 --> eff1 = 0.524286   eff2 = 0.524286    cov_pass = 154850   cov_fail = 170178
w_TRIGGmu_sigCat1_BsSignal_bin6 vs w_TRIGGmu_sigCat1_BsSignal_tot --> eff1 = 0.524286   eff2 = 0.563027    cov_pass = 148396   cov_fail = 143396
w_TRIGGmu_sigCat1_BsSignal_tot vs w_TRIGGmu_sigCat1_BsSignal_tot --> eff1 = 0.563027   eff2 = 0.563027    cov_pass = 159386   cov_fail = 130723
w_TRIGGmu_sigCat1_BsSignal_bin1 vs w_TRIGGmu_sigCat2_BsSignal_bin1 --> eff1 = 0.603301   eff2 = 0.629955    cov_pass = 215060   cov_fail = 108598
w_TRIGGmu_sigCat1_BsSignal_bin1 vs w_TRIGGmu_sigCat2_BsSignal_bin2 --> eff1 = 0.603301   eff2 = 0.610305    cov_pass = 197318   cov_fail = 109277
w_TRIGGmu_sigCat1_BsSignal_bin1 vs w_TRIGGmu_sigCat2_BsSignal_bin3 --> eff1 = 0.603301   eff2 = 0.600776    cov_pass = 188675   cov_fail = 109142
w_TRIGGmu_sigCat1_BsSignal_bin1 vs w_TRIGGmu_sigCat2_BsSignal_bin4 --> eff1 = 0.603301   eff2 = 0.592099    cov_pass = 178177   cov_fail = 109156
w_TRIGGmu_sigCat1_BsSignal_bin1 vs w_TRIGGmu_sigCat2_BsSignal_bin5 --> eff1 = 0.603301   eff2 = 0.571277    cov_pass = 167354   cov_fail = 112032
w_TRIGGmu_sigCat1_BsSignal_bin1 vs w_TRIGGmu_sigCat2_BsSignal_bin6 --> eff1 = 0.603301   eff2 = 0.533442    cov_pass = 148668   cov_fail = 117941
w_TRIGGmu_sigCat1_BsSignal_bin1 vs w_TRIGGmu_sigCat2_BsSignal_tot --> eff1 = 0.603301   eff2 = 0.599486    cov_pass = 188873   cov_fail = 110050
w_TRIGGmu_sigCat1_BsSignal_bin2 vs w_TRIGGmu_sigCat2_BsSignal_bin2 --> eff1 = 0.598141   eff2 = 0.610305    cov_pass = 190181   cov_fail = 107936
w_TRIGGmu_sigCat1_BsSignal_bin2 vs w_TRIGGmu_sigCat2_BsSignal_bin3 --> eff1 = 0.598141   eff2 = 0.600776    cov_pass = 185119   cov_fail = 110096
w_TRIGGmu_sigCat1_BsSignal_bin2 vs w_TRIGGmu_sigCat2_BsSignal_bin4 --> eff1 = 0.598141   eff2 = 0.592099    cov_pass = 178142   cov_fail = 111555
w_TRIGGmu_sigCat1_BsSignal_bin2 vs w_TRIGGmu_sigCat2_BsSignal_bin5 --> eff1 = 0.598141   eff2 = 0.571277    cov_pass = 168475   cov_fail = 116180
w_TRIGGmu_sigCat1_BsSignal_bin2 vs w_TRIGGmu_sigCat2_BsSignal_bin6 --> eff1 = 0.598141   eff2 = 0.533442    cov_pass = 156529   cov_fail = 126248
w_TRIGGmu_sigCat1_BsSignal_bin2 vs w_TRIGGmu_sigCat2_BsSignal_tot --> eff1 = 0.598141   eff2 = 0.599486    cov_pass = 184871   cov_fail = 110661
w_TRIGGmu_sigCat1_BsSignal_bin3 vs w_TRIGGmu_sigCat2_BsSignal_bin3 --> eff1 = 0.582566   eff2 = 0.600776    cov_pass = 180482   cov_fail = 113346
w_TRIGGmu_sigCat1_BsSignal_bin3 vs w_TRIGGmu_sigCat2_BsSignal_bin4 --> eff1 = 0.582566   eff2 = 0.592099    cov_pass = 173771   cov_fail = 115185
w_TRIGGmu_sigCat1_BsSignal_bin3 vs w_TRIGGmu_sigCat2_BsSignal_bin5 --> eff1 = 0.582566   eff2 = 0.571277    cov_pass = 164485   cov_fail = 118720
w_TRIGGmu_sigCat1_BsSignal_bin3 vs w_TRIGGmu_sigCat2_BsSignal_bin6 --> eff1 = 0.582566   eff2 = 0.533442    cov_pass = 148344   cov_fail = 128161
w_TRIGGmu_sigCat1_BsSignal_bin3 vs w_TRIGGmu_sigCat2_BsSignal_tot --> eff1 = 0.582566   eff2 = 0.599486    cov_pass = 179947   cov_fail = 113898
w_TRIGGmu_sigCat1_BsSignal_bin4 vs w_TRIGGmu_sigCat2_BsSignal_bin4 --> eff1 = 0.569867   eff2 = 0.592099    cov_pass = 168623   cov_fail = 118091
w_TRIGGmu_sigCat1_BsSignal_bin4 vs w_TRIGGmu_sigCat2_BsSignal_bin5 --> eff1 = 0.569867   eff2 = 0.571277    cov_pass = 161743   cov_fail = 123167
w_TRIGGmu_sigCat1_BsSignal_bin4 vs w_TRIGGmu_sigCat2_BsSignal_bin6 --> eff1 = 0.569867   eff2 = 0.533442    cov_pass = 149202   cov_fail = 132932
w_TRIGGmu_sigCat1_BsSignal_bin4 vs w_TRIGGmu_sigCat2_BsSignal_tot --> eff1 = 0.569867   eff2 = 0.599486    cov_pass = 171821   cov_fail = 116388
w_TRIGGmu_sigCat1_BsSignal_bin5 vs w_TRIGGmu_sigCat2_BsSignal_bin5 --> eff1 = 0.557973   eff2 = 0.571277    cov_pass = 159738   cov_fail = 127823
w_TRIGGmu_sigCat1_BsSignal_bin5 vs w_TRIGGmu_sigCat2_BsSignal_bin6 --> eff1 = 0.557973   eff2 = 0.533442    cov_pass = 151444   cov_fail = 140792
w_TRIGGmu_sigCat1_BsSignal_bin5 vs w_TRIGGmu_sigCat2_BsSignal_tot --> eff1 = 0.557973   eff2 = 0.599486    cov_pass = 165419   cov_fail = 118477
w_TRIGGmu_sigCat1_BsSignal_bin6 vs w_TRIGGmu_sigCat2_BsSignal_bin6 --> eff1 = 0.524286   eff2 = 0.533442    cov_pass = 151203   cov_fail = 160212
w_TRIGGmu_sigCat1_BsSignal_bin6 vs w_TRIGGmu_sigCat2_BsSignal_tot --> eff1 = 0.524286   eff2 = 0.599486    cov_pass = 150774   cov_fail = 126672
w_TRIGGmu_sigCat1_BsSignal_tot vs w_TRIGGmu_sigCat2_BsSignal_tot --> eff1 = 0.563027   eff2 = 0.599486    cov_pass = 168703   cov_fail = 118047
w_TRIGGmu_sigCat2_BsSignal_bin1 vs w_TRIGGmu_sigCat2_BsSignal_bin1 --> eff1 = 0.629955   eff2 = 0.629955    cov_pass = 231213   cov_fail = 105968
w_TRIGGmu_sigCat2_BsSignal_bin1 vs w_TRIGGmu_sigCat2_BsSignal_bin2 --> eff1 = 0.629955   eff2 = 0.610305    cov_pass = 209995   cov_fail = 104035
w_TRIGGmu_sigCat2_BsSignal_bin1 vs w_TRIGGmu_sigCat2_BsSignal_bin3 --> eff1 = 0.629955   eff2 = 0.600776    cov_pass = 200720   cov_fail = 103346
w_TRIGGmu_sigCat2_BsSignal_bin1 vs w_TRIGGmu_sigCat2_BsSignal_bin4 --> eff1 = 0.629955   eff2 = 0.592099    cov_pass = 189564   cov_fail = 103077
w_TRIGGmu_sigCat2_BsSignal_bin1 vs w_TRIGGmu_sigCat2_BsSignal_bin5 --> eff1 = 0.629955   eff2 = 0.571277    cov_pass = 174454   cov_fail = 103923
w_TRIGGmu_sigCat2_BsSignal_bin1 vs w_TRIGGmu_sigCat2_BsSignal_bin6 --> eff1 = 0.629955   eff2 = 0.533442    cov_pass = 152787   cov_fail = 108410
w_TRIGGmu_sigCat2_BsSignal_bin1 vs w_TRIGGmu_sigCat2_BsSignal_tot --> eff1 = 0.629955   eff2 = 0.599486    cov_pass = 200244   cov_fail = 104131
w_TRIGGmu_sigCat2_BsSignal_bin2 vs w_TRIGGmu_sigCat2_BsSignal_bin2 --> eff1 = 0.610305   eff2 = 0.610305    cov_pass = 202027   cov_fail = 108854
w_TRIGGmu_sigCat2_BsSignal_bin2 vs w_TRIGGmu_sigCat2_BsSignal_bin3 --> eff1 = 0.610305   eff2 = 0.600776    cov_pass = 190722   cov_fail = 107482
w_TRIGGmu_sigCat2_BsSignal_bin2 vs w_TRIGGmu_sigCat2_BsSignal_bin4 --> eff1 = 0.610305   eff2 = 0.592099    cov_pass = 182914   cov_fail = 108590
w_TRIGGmu_sigCat2_BsSignal_bin2 vs w_TRIGGmu_sigCat2_BsSignal_bin5 --> eff1 = 0.610305   eff2 = 0.571277    cov_pass = 171742   cov_fail = 110859
w_TRIGGmu_sigCat2_BsSignal_bin2 vs w_TRIGGmu_sigCat2_BsSignal_bin6 --> eff1 = 0.610305   eff2 = 0.533442    cov_pass = 152406   cov_fail = 117255
w_TRIGGmu_sigCat2_BsSignal_bin2 vs w_TRIGGmu_sigCat2_BsSignal_tot --> eff1 = 0.610305   eff2 = 0.599486    cov_pass = 190642   cov_fail = 108063
w_TRIGGmu_sigCat2_BsSignal_bin3 vs w_TRIGGmu_sigCat2_BsSignal_bin3 --> eff1 = 0.600776   eff2 = 0.600776    cov_pass = 188826   cov_fail = 111027
w_TRIGGmu_sigCat2_BsSignal_bin3 vs w_TRIGGmu_sigCat2_BsSignal_bin4 --> eff1 = 0.600776   eff2 = 0.592099    cov_pass = 180257   cov_fail = 111146
w_TRIGGmu_sigCat2_BsSignal_bin3 vs w_TRIGGmu_sigCat2_BsSignal_bin5 --> eff1 = 0.600776   eff2 = 0.571277    cov_pass = 169737   cov_fail = 114518
w_TRIGGmu_sigCat2_BsSignal_bin3 vs w_TRIGGmu_sigCat2_BsSignal_bin6 --> eff1 = 0.600776   eff2 = 0.533442    cov_pass = 153995   cov_fail = 123279
w_TRIGGmu_sigCat2_BsSignal_bin3 vs w_TRIGGmu_sigCat2_BsSignal_tot --> eff1 = 0.600776   eff2 = 0.599486    cov_pass = 185689   cov_fail = 110004
w_TRIGGmu_sigCat2_BsSignal_bin4 vs w_TRIGGmu_sigCat2_BsSignal_bin4 --> eff1 = 0.592099   eff2 = 0.592099    cov_pass = 180201   cov_fail = 116021
w_TRIGGmu_sigCat2_BsSignal_bin4 vs w_TRIGGmu_sigCat2_BsSignal_bin5 --> eff1 = 0.592099   eff2 = 0.571277    cov_pass = 168815   cov_fail = 118214
w_TRIGGmu_sigCat2_BsSignal_bin4 vs w_TRIGGmu_sigCat2_BsSignal_bin6 --> eff1 = 0.592099   eff2 = 0.533442    cov_pass = 155948   cov_fail = 128493
w_TRIGGmu_sigCat2_BsSignal_bin4 vs w_TRIGGmu_sigCat2_BsSignal_tot --> eff1 = 0.592099   eff2 = 0.599486    cov_pass = 179630   cov_fail = 111640
w_TRIGGmu_sigCat2_BsSignal_bin5 vs w_TRIGGmu_sigCat2_BsSignal_bin5 --> eff1 = 0.571277   eff2 = 0.571277    cov_pass = 170416   cov_fail = 129332
w_TRIGGmu_sigCat2_BsSignal_bin5 vs w_TRIGGmu_sigCat2_BsSignal_bin6 --> eff1 = 0.571277   eff2 = 0.533442    cov_pass = 156295   cov_fail = 137608
w_TRIGGmu_sigCat2_BsSignal_bin5 vs w_TRIGGmu_sigCat2_BsSignal_tot --> eff1 = 0.571277   eff2 = 0.599486    cov_pass = 170046   cov_fail = 115344
w_TRIGGmu_sigCat2_BsSignal_bin6 vs w_TRIGGmu_sigCat2_BsSignal_bin6 --> eff1 = 0.533442   eff2 = 0.533442    cov_pass = 165379   cov_fail = 164001
w_TRIGGmu_sigCat2_BsSignal_bin6 vs w_TRIGGmu_sigCat2_BsSignal_tot --> eff1 = 0.533442   eff2 = 0.599486    cov_pass = 154605   cov_fail = 123910
w_TRIGGmu_sigCat2_BsSignal_tot vs w_TRIGGmu_sigCat2_BsSignal_tot --> eff1 = 0.599486   eff2 = 0.599486    cov_pass = 185103   cov_fail = 110411
