w_PIDmu_sigCat1_BdKpipi11_bin1 vs w_PIDmu_sigCat1_BdKpipi11_bin1 --> eff1 = 0.923895   eff2 = 0.923895    cov_pass = 1.29845e+06   cov_fail = 542684
w_PIDmu_sigCat1_BdKpipi11_bin1 vs w_PIDmu_sigCat1_BdKpipi11_bin2 --> eff1 = 0.923895   eff2 = 0.921762    cov_pass = 1.21781e+06   cov_fail = 489978
w_PIDmu_sigCat1_BdKpipi11_bin1 vs w_PIDmu_sigCat1_BdKpipi11_bin3 --> eff1 = 0.923895   eff2 = 0.918224    cov_pass = 1.14337e+06   cov_fail = 462831
w_PIDmu_sigCat1_BdKpipi11_bin1 vs w_PIDmu_sigCat1_BdKpipi11_bin4 --> eff1 = 0.923895   eff2 = 0.917206    cov_pass = 1.1064e+06   cov_fail = 444429
w_PIDmu_sigCat1_BdKpipi11_bin1 vs w_PIDmu_sigCat1_BdKpipi11_bin5 --> eff1 = 0.923895   eff2 = 0.915689    cov_pass = 1.03418e+06   cov_fail = 422845
w_PIDmu_sigCat1_BdKpipi11_bin1 vs w_PIDmu_sigCat1_BdKpipi11_bin6 --> eff1 = 0.923895   eff2 = 0.915262    cov_pass = 921099   cov_fail = 388899
w_PIDmu_sigCat1_BdKpipi11_bin1 vs w_PIDmu_sigCat1_BdKpipi11_tot --> eff1 = 0.923895   eff2 = 0.917384    cov_pass = 1.06628e+06   cov_fail = 436733
w_PIDmu_sigCat1_BdKpipi11_bin2 vs w_PIDmu_sigCat1_BdKpipi11_bin2 --> eff1 = 0.921762   eff2 = 0.921762    cov_pass = 1.20213e+06   cov_fail = 473358
w_PIDmu_sigCat1_BdKpipi11_bin2 vs w_PIDmu_sigCat1_BdKpipi11_bin3 --> eff1 = 0.921762   eff2 = 0.918224    cov_pass = 1.13154e+06   cov_fail = 450944
w_PIDmu_sigCat1_BdKpipi11_bin2 vs w_PIDmu_sigCat1_BdKpipi11_bin4 --> eff1 = 0.921762   eff2 = 0.917206    cov_pass = 1.10602e+06   cov_fail = 438907
w_PIDmu_sigCat1_BdKpipi11_bin2 vs w_PIDmu_sigCat1_BdKpipi11_bin5 --> eff1 = 0.921762   eff2 = 0.915689    cov_pass = 1.03644e+06   cov_fail = 419727
w_PIDmu_sigCat1_BdKpipi11_bin2 vs w_PIDmu_sigCat1_BdKpipi11_bin6 --> eff1 = 0.921762   eff2 = 0.915262    cov_pass = 930635   cov_fail = 392136
w_PIDmu_sigCat1_BdKpipi11_bin2 vs w_PIDmu_sigCat1_BdKpipi11_tot --> eff1 = 0.921762   eff2 = 0.917384    cov_pass = 1.0623e+06   cov_fail = 429724
w_PIDmu_sigCat1_BdKpipi11_bin3 vs w_PIDmu_sigCat1_BdKpipi11_bin3 --> eff1 = 0.918224   eff2 = 0.918224    cov_pass = 1.10082e+06   cov_fail = 446031
w_PIDmu_sigCat1_BdKpipi11_bin3 vs w_PIDmu_sigCat1_BdKpipi11_bin4 --> eff1 = 0.918224   eff2 = 0.917206    cov_pass = 1.07717e+06   cov_fail = 434652
w_PIDmu_sigCat1_BdKpipi11_bin3 vs w_PIDmu_sigCat1_BdKpipi11_bin5 --> eff1 = 0.918224   eff2 = 0.915689    cov_pass = 1.01852e+06   cov_fail = 419949
w_PIDmu_sigCat1_BdKpipi11_bin3 vs w_PIDmu_sigCat1_BdKpipi11_bin6 --> eff1 = 0.918224   eff2 = 0.915262    cov_pass = 921255   cov_fail = 395441
w_PIDmu_sigCat1_BdKpipi11_bin3 vs w_PIDmu_sigCat1_BdKpipi11_tot --> eff1 = 0.918224   eff2 = 0.917384    cov_pass = 1.03624e+06   cov_fail = 426157
w_PIDmu_sigCat1_BdKpipi11_bin4 vs w_PIDmu_sigCat1_BdKpipi11_bin4 --> eff1 = 0.917206   eff2 = 0.917206    cov_pass = 1.07958e+06   cov_fail = 434064
w_PIDmu_sigCat1_BdKpipi11_bin4 vs w_PIDmu_sigCat1_BdKpipi11_bin5 --> eff1 = 0.917206   eff2 = 0.915689    cov_pass = 1.02237e+06   cov_fail = 420104
w_PIDmu_sigCat1_BdKpipi11_bin4 vs w_PIDmu_sigCat1_BdKpipi11_bin6 --> eff1 = 0.917206   eff2 = 0.915262    cov_pass = 934964   cov_fail = 399710
w_PIDmu_sigCat1_BdKpipi11_bin4 vs w_PIDmu_sigCat1_BdKpipi11_tot --> eff1 = 0.917206   eff2 = 0.917384    cov_pass = 1.03304e+06   cov_fail = 422950
w_PIDmu_sigCat1_BdKpipi11_bin5 vs w_PIDmu_sigCat1_BdKpipi11_bin5 --> eff1 = 0.915689   eff2 = 0.915689    cov_pass = 996572   cov_fail = 419183
w_PIDmu_sigCat1_BdKpipi11_bin5 vs w_PIDmu_sigCat1_BdKpipi11_bin6 --> eff1 = 0.915689   eff2 = 0.915262    cov_pass = 929744   cov_fail = 406383
w_PIDmu_sigCat1_BdKpipi11_bin5 vs w_PIDmu_sigCat1_BdKpipi11_tot --> eff1 = 0.915689   eff2 = 0.917384    cov_pass = 995528   cov_fail = 417051
w_PIDmu_sigCat1_BdKpipi11_bin6 vs w_PIDmu_sigCat1_BdKpipi11_bin6 --> eff1 = 0.915262   eff2 = 0.915262    cov_pass = 934775   cov_fail = 423764
w_PIDmu_sigCat1_BdKpipi11_bin6 vs w_PIDmu_sigCat1_BdKpipi11_tot --> eff1 = 0.915262   eff2 = 0.917384    cov_pass = 929431   cov_fail = 404576
w_PIDmu_sigCat1_BdKpipi11_tot vs w_PIDmu_sigCat1_BdKpipi11_tot --> eff1 = 0.917384   eff2 = 0.917384    cov_pass = 1.00632e+06   cov_fail = 420399
w_PIDmu_sigCat1_BdKpipi11_bin1 vs w_PIDmu_sigCat2_BdKpipi11_bin1 --> eff1 = 0.923895   eff2 = 0.927995    cov_pass = 1.38709e+06   cov_fail = 508451
w_PIDmu_sigCat1_BdKpipi11_bin1 vs w_PIDmu_sigCat2_BdKpipi11_bin2 --> eff1 = 0.923895   eff2 = 0.924108    cov_pass = 1.27832e+06   cov_fail = 470608
w_PIDmu_sigCat1_BdKpipi11_bin1 vs w_PIDmu_sigCat2_BdKpipi11_bin3 --> eff1 = 0.923895   eff2 = 0.921528    cov_pass = 1.18849e+06   cov_fail = 443625
w_PIDmu_sigCat1_BdKpipi11_bin1 vs w_PIDmu_sigCat2_BdKpipi11_bin4 --> eff1 = 0.923895   eff2 = 0.920066    cov_pass = 1.13005e+06   cov_fail = 425328
w_PIDmu_sigCat1_BdKpipi11_bin1 vs w_PIDmu_sigCat2_BdKpipi11_bin5 --> eff1 = 0.923895   eff2 = 0.917597    cov_pass = 1.05434e+06   cov_fail = 408964
w_PIDmu_sigCat1_BdKpipi11_bin1 vs w_PIDmu_sigCat2_BdKpipi11_bin6 --> eff1 = 0.923895   eff2 = 0.917188    cov_pass = 933351   cov_fail = 389796
w_PIDmu_sigCat1_BdKpipi11_bin1 vs w_PIDmu_sigCat2_BdKpipi11_tot --> eff1 = 0.923895   eff2 = 0.922515    cov_pass = 1.20347e+06   cov_fail = 450391
w_PIDmu_sigCat1_BdKpipi11_bin2 vs w_PIDmu_sigCat2_BdKpipi11_bin2 --> eff1 = 0.921762   eff2 = 0.924108    cov_pass = 1.27238e+06   cov_fail = 462248
w_PIDmu_sigCat1_BdKpipi11_bin2 vs w_PIDmu_sigCat2_BdKpipi11_bin3 --> eff1 = 0.921762   eff2 = 0.921528    cov_pass = 1.1935e+06   cov_fail = 441751
w_PIDmu_sigCat1_BdKpipi11_bin2 vs w_PIDmu_sigCat2_BdKpipi11_bin4 --> eff1 = 0.921762   eff2 = 0.920066    cov_pass = 1.14007e+06   cov_fail = 427349
w_PIDmu_sigCat1_BdKpipi11_bin2 vs w_PIDmu_sigCat2_BdKpipi11_bin5 --> eff1 = 0.921762   eff2 = 0.917597    cov_pass = 1.06985e+06   cov_fail = 414205
w_PIDmu_sigCat1_BdKpipi11_bin2 vs w_PIDmu_sigCat2_BdKpipi11_bin6 --> eff1 = 0.921762   eff2 = 0.917188    cov_pass = 950963   cov_fail = 395531
w_PIDmu_sigCat1_BdKpipi11_bin2 vs w_PIDmu_sigCat2_BdKpipi11_tot --> eff1 = 0.921762   eff2 = 0.922515    cov_pass = 1.20447e+06   cov_fail = 446267
w_PIDmu_sigCat1_BdKpipi11_bin3 vs w_PIDmu_sigCat2_BdKpipi11_bin3 --> eff1 = 0.918224   eff2 = 0.921528    cov_pass = 1.15829e+06   cov_fail = 436681
w_PIDmu_sigCat1_BdKpipi11_bin3 vs w_PIDmu_sigCat2_BdKpipi11_bin4 --> eff1 = 0.918224   eff2 = 0.920066    cov_pass = 1.11603e+06   cov_fail = 426535
w_PIDmu_sigCat1_BdKpipi11_bin3 vs w_PIDmu_sigCat2_BdKpipi11_bin5 --> eff1 = 0.918224   eff2 = 0.917597    cov_pass = 1.05755e+06   cov_fail = 417169
w_PIDmu_sigCat1_BdKpipi11_bin3 vs w_PIDmu_sigCat2_BdKpipi11_bin6 --> eff1 = 0.918224   eff2 = 0.917188    cov_pass = 938386   cov_fail = 397269
w_PIDmu_sigCat1_BdKpipi11_bin3 vs w_PIDmu_sigCat2_BdKpipi11_tot --> eff1 = 0.918224   eff2 = 0.922515    cov_pass = 1.16485e+06   cov_fail = 439115
w_PIDmu_sigCat1_BdKpipi11_bin4 vs w_PIDmu_sigCat2_BdKpipi11_bin4 --> eff1 = 0.917206   eff2 = 0.920066    cov_pass = 1.11483e+06   cov_fail = 427358
w_PIDmu_sigCat1_BdKpipi11_bin4 vs w_PIDmu_sigCat2_BdKpipi11_bin5 --> eff1 = 0.917206   eff2 = 0.917597    cov_pass = 1.06735e+06   cov_fail = 421161
w_PIDmu_sigCat1_BdKpipi11_bin4 vs w_PIDmu_sigCat2_BdKpipi11_bin6 --> eff1 = 0.917206   eff2 = 0.917188    cov_pass = 946378   cov_fail = 399924
w_PIDmu_sigCat1_BdKpipi11_bin4 vs w_PIDmu_sigCat2_BdKpipi11_tot --> eff1 = 0.917206   eff2 = 0.922515    cov_pass = 1.15309e+06   cov_fail = 435221
w_PIDmu_sigCat1_BdKpipi11_bin5 vs w_PIDmu_sigCat2_BdKpipi11_bin5 --> eff1 = 0.915689   eff2 = 0.917597    cov_pass = 1.0346e+06   cov_fail = 416789
w_PIDmu_sigCat1_BdKpipi11_bin5 vs w_PIDmu_sigCat2_BdKpipi11_bin6 --> eff1 = 0.915689   eff2 = 0.917188    cov_pass = 939259   cov_fail = 404432
w_PIDmu_sigCat1_BdKpipi11_bin5 vs w_PIDmu_sigCat2_BdKpipi11_tot --> eff1 = 0.915689   eff2 = 0.922515    cov_pass = 1.08963e+06   cov_fail = 421009
w_PIDmu_sigCat1_BdKpipi11_bin6 vs w_PIDmu_sigCat2_BdKpipi11_bin6 --> eff1 = 0.915262   eff2 = 0.917188    cov_pass = 939295   cov_fail = 418645
w_PIDmu_sigCat1_BdKpipi11_bin6 vs w_PIDmu_sigCat2_BdKpipi11_tot --> eff1 = 0.915262   eff2 = 0.922515    cov_pass = 978059   cov_fail = 395818
w_PIDmu_sigCat1_BdKpipi11_tot vs w_PIDmu_sigCat2_BdKpipi11_tot --> eff1 = 0.917384   eff2 = 0.922515    cov_pass = 1.10392e+06   cov_fail = 424413
w_PIDmu_sigCat2_BdKpipi11_bin1 vs w_PIDmu_sigCat2_BdKpipi11_bin1 --> eff1 = 0.927995   eff2 = 0.927995    cov_pass = 1.68817e+06   cov_fail = 559215
w_PIDmu_sigCat2_BdKpipi11_bin1 vs w_PIDmu_sigCat2_BdKpipi11_bin2 --> eff1 = 0.927995   eff2 = 0.924108    cov_pass = 1.5029e+06   cov_fail = 504375
w_PIDmu_sigCat2_BdKpipi11_bin1 vs w_PIDmu_sigCat2_BdKpipi11_bin3 --> eff1 = 0.927995   eff2 = 0.921528    cov_pass = 1.39098e+06   cov_fail = 473185
w_PIDmu_sigCat2_BdKpipi11_bin1 vs w_PIDmu_sigCat2_BdKpipi11_bin4 --> eff1 = 0.927995   eff2 = 0.920066    cov_pass = 1.30845e+06   cov_fail = 449911
w_PIDmu_sigCat2_BdKpipi11_bin1 vs w_PIDmu_sigCat2_BdKpipi11_bin5 --> eff1 = 0.927995   eff2 = 0.917597    cov_pass = 1.18914e+06   cov_fail = 422866
w_PIDmu_sigCat2_BdKpipi11_bin1 vs w_PIDmu_sigCat2_BdKpipi11_bin6 --> eff1 = 0.927995   eff2 = 0.917188    cov_pass = 1.00357e+06   cov_fail = 384752
w_PIDmu_sigCat2_BdKpipi11_bin1 vs w_PIDmu_sigCat2_BdKpipi11_tot --> eff1 = 0.927995   eff2 = 0.922515    cov_pass = 1.40452e+06   cov_fail = 478532
w_PIDmu_sigCat2_BdKpipi11_bin2 vs w_PIDmu_sigCat2_BdKpipi11_bin2 --> eff1 = 0.924108   eff2 = 0.924108    cov_pass = 1.42808e+06   cov_fail = 487629
w_PIDmu_sigCat2_BdKpipi11_bin2 vs w_PIDmu_sigCat2_BdKpipi11_bin3 --> eff1 = 0.924108   eff2 = 0.921528    cov_pass = 1.32756e+06   cov_fail = 461132
w_PIDmu_sigCat2_BdKpipi11_bin2 vs w_PIDmu_sigCat2_BdKpipi11_bin4 --> eff1 = 0.924108   eff2 = 0.920066    cov_pass = 1.26567e+06   cov_fail = 445505
w_PIDmu_sigCat2_BdKpipi11_bin2 vs w_PIDmu_sigCat2_BdKpipi11_bin5 --> eff1 = 0.924108   eff2 = 0.917597    cov_pass = 1.18092e+06   cov_fail = 429360
w_PIDmu_sigCat2_BdKpipi11_bin2 vs w_PIDmu_sigCat2_BdKpipi11_bin6 --> eff1 = 0.924108   eff2 = 0.917188    cov_pass = 1.01307e+06   cov_fail = 394777
w_PIDmu_sigCat2_BdKpipi11_bin2 vs w_PIDmu_sigCat2_BdKpipi11_tot --> eff1 = 0.924108   eff2 = 0.922515    cov_pass = 1.33563e+06   cov_fail = 463968
w_PIDmu_sigCat2_BdKpipi11_bin3 vs w_PIDmu_sigCat2_BdKpipi11_bin3 --> eff1 = 0.921528   eff2 = 0.921528    cov_pass = 1.27454e+06   cov_fail = 452797
w_PIDmu_sigCat2_BdKpipi11_bin3 vs w_PIDmu_sigCat2_BdKpipi11_bin4 --> eff1 = 0.921528   eff2 = 0.920066    cov_pass = 1.21756e+06   cov_fail = 439455
w_PIDmu_sigCat2_BdKpipi11_bin3 vs w_PIDmu_sigCat2_BdKpipi11_bin5 --> eff1 = 0.921528   eff2 = 0.917597    cov_pass = 1.14866e+06   cov_fail = 427486
w_PIDmu_sigCat2_BdKpipi11_bin3 vs w_PIDmu_sigCat2_BdKpipi11_bin6 --> eff1 = 0.921528   eff2 = 0.917188    cov_pass = 989951   cov_fail = 395243
w_PIDmu_sigCat2_BdKpipi11_bin3 vs w_PIDmu_sigCat2_BdKpipi11_tot --> eff1 = 0.921528   eff2 = 0.922515    cov_pass = 1.27025e+06   cov_fail = 450735
w_PIDmu_sigCat2_BdKpipi11_bin4 vs w_PIDmu_sigCat2_BdKpipi11_bin4 --> eff1 = 0.920066   eff2 = 0.920066    cov_pass = 1.19689e+06   cov_fail = 439474
w_PIDmu_sigCat2_BdKpipi11_bin4 vs w_PIDmu_sigCat2_BdKpipi11_bin5 --> eff1 = 0.920066   eff2 = 0.917597    cov_pass = 1.13159e+06   cov_fail = 427289
w_PIDmu_sigCat2_BdKpipi11_bin4 vs w_PIDmu_sigCat2_BdKpipi11_bin6 --> eff1 = 0.920066   eff2 = 0.917188    cov_pass = 988293   cov_fail = 399910
w_PIDmu_sigCat2_BdKpipi11_bin4 vs w_PIDmu_sigCat2_BdKpipi11_tot --> eff1 = 0.920066   eff2 = 0.922515    cov_pass = 1.22082e+06   cov_fail = 439443
w_PIDmu_sigCat2_BdKpipi11_bin5 vs w_PIDmu_sigCat2_BdKpipi11_bin5 --> eff1 = 0.917597   eff2 = 0.917597    cov_pass = 1.12221e+06   cov_fail = 435265
w_PIDmu_sigCat2_BdKpipi11_bin5 vs w_PIDmu_sigCat2_BdKpipi11_bin6 --> eff1 = 0.917597   eff2 = 0.917188    cov_pass = 984402   cov_fail = 407652
w_PIDmu_sigCat2_BdKpipi11_bin5 vs w_PIDmu_sigCat2_BdKpipi11_tot --> eff1 = 0.917597   eff2 = 0.922515    cov_pass = 1.1487e+06   cov_fail = 426752
w_PIDmu_sigCat2_BdKpipi11_bin6 vs w_PIDmu_sigCat2_BdKpipi11_bin6 --> eff1 = 0.917188   eff2 = 0.917188    cov_pass = 1.00819e+06   cov_fail = 442451
w_PIDmu_sigCat2_BdKpipi11_bin6 vs w_PIDmu_sigCat2_BdKpipi11_tot --> eff1 = 0.917188   eff2 = 0.922515    cov_pass = 996354   cov_fail = 396872
w_PIDmu_sigCat2_BdKpipi11_tot vs w_PIDmu_sigCat2_BdKpipi11_tot --> eff1 = 0.922515   eff2 = 0.922515    cov_pass = 1.27688e+06   cov_fail = 452611
