w_PIDmu_sigCat1_BsSignal_bin1 : eff = 0.924315 \pm 0.000600422
w_PIDmu_sigCat1_BsSignal_bin2 : eff = 0.919009 \pm 0.000567484
w_PIDmu_sigCat1_BsSignal_bin3 : eff = 0.915794 \pm 0.000567368
w_PIDmu_sigCat1_BsSignal_bin4 : eff = 0.917181 \pm 0.000562415
w_PIDmu_sigCat1_BsSignal_bin5 : eff = 0.91542 \pm 0.000567881
w_PIDmu_sigCat1_BsSignal_bin6 : eff = 0.914847 \pm 0.000591981
w_PIDmu_sigCat1_BsSignal_tot : eff = 0.916756 \pm 0.000563449
w_PIDmu_sigCat2_BsSignal_bin1 : eff = 0.927155 \pm 0.000581621
w_PIDmu_sigCat2_BsSignal_bin2 : eff = 0.923499 \pm 0.000562472
w_PIDmu_sigCat2_BsSignal_bin3 : eff = 0.921017 \pm 0.00055531
w_PIDmu_sigCat2_BsSignal_bin4 : eff = 0.918566 \pm 0.000554926
w_PIDmu_sigCat2_BsSignal_bin5 : eff = 0.917646 \pm 0.000561892
w_PIDmu_sigCat2_BsSignal_bin6 : eff = 0.915571 \pm 0.00058509
w_PIDmu_sigCat2_BsSignal_tot : eff = 0.921598 \pm 0.000555091
