*********** : cutANDcount
Denominator :  88669
  Numerator :  49830
        p+f :  88669
     effC&C :  0.561977692316
  efferrC&C :  0.00166617934918
*********** : TagANDProbe
*********** : rew
    len(CS) :  565480
    len(MC) :  88669
*********** : calEff
Denominator :  565480.0
  Numerator :  319259.870731
        p+f :  565480.0
     effT&P :  0.564582073161
    err eff :  0.000659337945086
  efferrT&P :  0.000699308991067
